EESchema Schematic File Version 4
EELAYER 30 0
EELAYER END
$Descr A4 11693 8268
encoding utf-8
Sheet 1 1
Title ""
Date ""
Rev ""
Comp ""
Comment1 ""
Comment2 ""
Comment3 ""
Comment4 ""
$EndDescr
$Comp
L Device:R_Small_US R3
U 1 1 60B8406C
P 6950 2550
F 0 "R3" H 7018 2596 50  0000 L CNN
F 1 "100" H 7018 2505 50  0000 L CNN
F 2 "Resistor_THT:R_Axial_DIN0411_L9.9mm_D3.6mm_P5.08mm_Vertical" H 6950 2550 50  0001 C CNN
F 3 "~" H 6950 2550 50  0001 C CNN
	1    6950 2550
	1    0    0    -1  
$EndComp
$Comp
L Device:R_Small_US R4
U 1 1 60B848E9
P 6950 4950
F 0 "R4" H 7018 4996 50  0000 L CNN
F 1 "100" H 7018 4905 50  0000 L CNN
F 2 "Resistor_THT:R_Axial_DIN0411_L9.9mm_D3.6mm_P5.08mm_Vertical" H 6950 4950 50  0001 C CNN
F 3 "~" H 6950 4950 50  0001 C CNN
	1    6950 4950
	1    0    0    -1  
$EndComp
$Comp
L Device:R_Small_US R1
U 1 1 60B84E48
P 4500 2550
F 0 "R1" H 4568 2596 50  0000 L CNN
F 1 "1.5k" H 4568 2505 50  0000 L CNN
F 2 "Resistor_THT:R_Axial_DIN0411_L9.9mm_D3.6mm_P5.08mm_Vertical" H 4500 2550 50  0001 C CNN
F 3 "~" H 4500 2550 50  0001 C CNN
	1    4500 2550
	1    0    0    -1  
$EndComp
$Comp
L Device:R_Small_US R2
U 1 1 60B85343
P 5850 3900
F 0 "R2" V 5645 3900 50  0000 C CNN
F 1 "1.5k" V 5736 3900 50  0000 C CNN
F 2 "Resistor_THT:R_Axial_DIN0411_L9.9mm_D3.6mm_P5.08mm_Vertical" H 5850 3900 50  0001 C CNN
F 3 "~" H 5850 3900 50  0001 C CNN
	1    5850 3900
	0    1    1    0   
$EndComp
$Comp
L Device:D_Zener_ALT ZenerDiode1
U 1 1 60B85BA1
P 4500 5000
F 0 "ZenerDiode1" V 4454 5079 50  0000 L CNN
F 1 "4.7" V 4545 5079 50  0000 L CNN
F 2 "Diode_THT:D_A-405_P5.08mm_Vertical_AnodeUp" H 4500 5000 50  0001 C CNN
F 3 "~" H 4500 5000 50  0001 C CNN
	1    4500 5000
	0    1    1    0   
$EndComp
$Comp
L Device:Q_NPN_CBE NPN1
U 1 1 60B861F6
P 6850 3900
F 0 "NPN1" H 7041 3946 50  0000 L CNN
F 1 "0.7" H 7041 3855 50  0000 L CNN
F 2 "Package_TO_SOT_THT:TO-264-3_Vertical" H 7050 4000 50  0001 C CNN
F 3 "~" H 6850 3900 50  0001 C CNN
	1    6850 3900
	1    0    0    -1  
$EndComp
$Comp
L power:GND #PWR01
U 1 1 60B8693E
P 4500 5700
F 0 "#PWR01" H 4500 5450 50  0001 C CNN
F 1 "GND" H 4505 5527 50  0000 C CNN
F 2 "" H 4500 5700 50  0001 C CNN
F 3 "" H 4500 5700 50  0001 C CNN
	1    4500 5700
	1    0    0    -1  
$EndComp
$Comp
L power:GND #PWR02
U 1 1 60B86B2C
P 6950 5750
F 0 "#PWR02" H 6950 5500 50  0001 C CNN
F 1 "GND" H 6955 5577 50  0000 C CNN
F 2 "" H 6950 5750 50  0001 C CNN
F 3 "" H 6950 5750 50  0001 C CNN
	1    6950 5750
	1    0    0    -1  
$EndComp
$Comp
L power:GND #PWR03
U 1 1 60B86F7E
P 8950 2700
F 0 "#PWR03" H 8950 2450 50  0001 C CNN
F 1 "GND" H 8955 2527 50  0000 C CNN
F 2 "" H 8950 2700 50  0001 C CNN
F 3 "" H 8950 2700 50  0001 C CNN
	1    8950 2700
	1    0    0    -1  
$EndComp
$Comp
L Device:Battery BT1
U 1 1 60B874D4
P 8950 1900
F 0 "BT1" H 9058 1946 50  0000 L CNN
F 1 "24" H 9058 1855 50  0000 L CNN
F 2 "Battery:Battery_Panasonic_CR1025-VSK_Vertical_CircularHoles" V 8950 1960 50  0001 C CNN
F 3 "~" V 8950 1960 50  0001 C CNN
	1    8950 1900
	1    0    0    -1  
$EndComp
Wire Wire Line
	4500 5700 4500 5150
Wire Wire Line
	4500 4850 4500 3900
Wire Wire Line
	4500 2450 4500 1900
Wire Wire Line
	4500 1900 5750 1900
Wire Wire Line
	6950 1900 6950 2450
Wire Wire Line
	6950 5050 6950 5750
Wire Wire Line
	5750 3900 4500 3900
Connection ~ 4500 3900
Wire Wire Line
	4500 3900 4500 2650
Wire Wire Line
	5750 1900 5750 1650
Wire Wire Line
	5750 1650 8950 1650
Wire Wire Line
	8950 1650 8950 1700
Connection ~ 5750 1900
Wire Wire Line
	5750 1900 6950 1900
Wire Wire Line
	8950 2100 8950 2700
Wire Wire Line
	5950 3900 6650 3900
Wire Wire Line
	6950 2650 6950 3700
Wire Wire Line
	6950 4100 6950 4450
Connection ~ 6950 4450
Wire Wire Line
	6950 4450 6950 4850
Text Label 7800 4450 0    50   ~ 0
Output
Wire Wire Line
	6950 4450 7800 4450
Text Notes 7700 7500 0    61   ~ 0
Hat
Text Notes 8350 6950 0    61   ~ 0
EEE3088PROJECT
Text Notes 8700 7650 0    61   ~ 0
2021
Text Notes 8400 7650 0    61   ~ 0
June
Text Notes 8200 7650 0    61   ~ 0
06
$EndSCHEMATC
